…
# Create a summary dataframe with yearly statistics
summary_df <- new_data %>%
  group_by(year) %>%
  summarise(
    MEAN = mean(MEAN, na.rm = TRUE),
    MIN = min(MEAN_MIN, na.rm = TRUE),
    MAX = max(MEAN_MAX, na.rm = TRUE)
  )
summary_df
```

    ## # A tibble: 246 × 4
    ##     year  MEAN   MIN   MAX
    ##    <dbl> <dbl> <dbl> <dbl>
    ##  1  1763  12.4 -2.16  27.6
    ##  2  1764  13.0  1.08  26.6
    ##  3  1765  12.7 -0.13  24.8
    ##  4  1766  12.5 -4.09  26.4
    ##  5  1767  11.7 -6.72  28.2
    ##  6  1768  12.2 -2.12  27.8
    ##  7  1769  13.1  1.23  26.8
    ##  8  1770  13.0 -1.46  26.4
    ##  9  1771  13.2  0.82  28.0
    ## 10  1772  14.4  1.3   28.2
    ## # ℹ 236 more rows
…
